{
	"ulid": "01CWGW3BYSJWG74T4Q6R419QTX",
	"minTime": 1542448800000,
	"maxTime": 1542456000000,
	"stats": {
		"numSamples": 55531,
		"numSeries": 53,
		"numChunks": 506
	},
	"compaction": {
		"level": 1,
		"sources": [
			"01CWGW3BYSJWG74T4Q6R419QTX"
		]
	},
	"version": 1
}
