{
	"ulid": "01CWEGN4MGWAXS9XQTZ1V1PW0P",
	"minTime": 1542175200000,
	"maxTime": 1542240000000,
	"stats": {},
	"compaction": {
		"level": 3,
		"sources": [
			"01CWEGMYP81DQ3JQ0V0QGNZ07X",
			"01CWEGMYRVVWAWDXN7JBGAEQK4",
			"01CWEGMYVD3DCGGMZDK0NQ859B",
			"01CWEGMYXS8SHTNVDNP03J3KP5",
			"01CWEGMZ0A0VCE3FWYMFV3PXKP",
			"01CWEGMZ363KPJ8E4GTKCZ646S",
			"01CWEGMZ5ZGH0RW7Z2VYPXHP9M",
			"01CWEGMZ924063TNMRZ78TN5AW",
			"01CWEGMZBRD963E598GKCYM6EJ"
		],
		"parents": [
			{
				"ulid": "01CWEGN2JQ052MRSCF4JA0D84E",
				"minTime": 1542175200000,
				"maxTime": 1542196800000
			},
			{
				"ulid": "01CWEGN2NV7A28HTJKYE8A7TG5",
				"minTime": 1542196800000,
				"maxTime": 1542218400000
			},
			{
				"ulid": "01CWEGN2RQEXWXN2S6TZ4A30XD",
				"minTime": 1542218400000,
				"maxTime": 1542240000000
			}
		]
	},
	"version": 1
}
