{
	"ulid": "01CWEGN4Q7GSNCW993ETR6Q0R2",
	"minTime": 1542240000000,
	"maxTime": 1542304800000,
	"stats": {},
	"compaction": {
		"level": 3,
		"sources": [
			"01CWEGMZE3TN0C9F7ARKWN2HQD",
			"01CWEGMZGV3J7D4MCK12Q1F66W",
			"01CWEGMZK5T2W68V5XDX7SGVS4",
			"01CWEGMZNGSHPZZH30F0259VWK",
			"01CWEGMZR16XJFEHTBJ2SRE5KS",
			"01CWEGMZTJ5VQ63TAVWJBB5RQT",
			"01CWEGMZWXE0S0CAHX0XM28TCM",
			"01CWEGMZZX4225J5YJ3FXH0C04",
			"01CWEGN032KVX0YFBCYY17ZJNQ"
		],
		"parents": [
			{
				"ulid": "01CWEGN2VSA1ER6BRX6JTE43HW",
				"minTime": 1542240000000,
				"maxTime": 1542261600000
			},
			{
				"ulid": "01CWEGN2YNYBFTXW2J5MNM57B3",
				"minTime": 1542261600000,
				"maxTime": 1542283200000
			},
			{
				"ulid": "01CWEGN31S86QP9FE3FXS8M7PF",
				"minTime": 1542283200000,
				"maxTime": 1542304800000
			}
		]
	},
	"version": 1
}
