{
	"ulid": "01CWEGN3BHPAQSNXJAXE8FR5JF",
	"minTime": 1542045600000,
	"maxTime": 1542110400000,
	"stats": {
		"numSamples": 218144,
		"numSeries": 46,
		"numChunks": 1542
	},
	"compaction": {
		"level": 3,
		"sources": [
			"01CW4VTN4PA8G2VPKXNBFXJ84V",
			"01CW52ED2M2BTT7P1K8F9PNBZZ",
			"01CW5ANT3RC2JJQK22Q3460QG3",
			"01CW5JH9XV0SNCGC2DRK24RY40",
			"01CW5SDGA0165NX6S1HVB02887",
			"01CW609PPHV2GDJKMRDYHYAZM7",
			"01CW675VM592B0WBVZKNN2ZSPD",
			"01CW6FBY99PT1AFT7NY60RX5RT",
			"01CWEGMWJJ5H6P520R2P0YCPR9"
		],
		"parents": [
			{
				"ulid": "01CW5JHAWZB4C70GCNZNCABEN1",
				"minTime": 1542045600000,
				"maxTime": 1542067200000
			},
			{
				"ulid": "01CW675WN4CR697KVQM76KW5FJ",
				"minTime": 1542067200000,
				"maxTime": 1542088800000
			},
			{
				"ulid": "01CWEGN0Y2ZHMDRRNQ6YZ9RAAJ",
				"minTime": 1542088800000,
				"maxTime": 1542110400000
			}
		]
	},
	"version": 1
}
